{
  "project_info": {
    "project_number": "1088895038181",
    "firebase_url": "https://reckonpush-4870e.firebaseio.com",
    "project_id": "reckonpush-4870e",
    "storage_bucket": "reckonpush-4870e.appspot.com"
  },
  "client": [
    {
      "client_info": {
        "mobilesdk_app_id": "1:1088895038181:android:3112a8eebf77da1f169a0c",
        "android_client_info": {
          "package_name": "com.reckonpush"
        }
      },
      "oauth_client": [
        {
          "client_id": "1088895038181-6n9dnkl4ap80mlkta35ia2jkcq7sj73n.apps.googleusercontent.com",
          "client_type": 3
        }
      ],
      "api_key": [
        {
          "current_key": "AIzaSyDaAiEBFCNCQ30p9tMVkC-5nXz1VXFm9CE"
        }
      ],
      "services": {
        "appinvite_service": {
          "other_platform_oauth_client": [
            {
              "client_id": "1088895038181-6n9dnkl4ap80mlkta35ia2jkcq7sj73n.apps.googleusercontent.com",
              "client_type": 3
            }
          ]
        }
      }
    }
  ],
  "configuration_version": "1"
}